…
``` r
data
```

    ## # A tibble: 520 x 17
    ##      Age Gender Polyuria Polydipsia sudden.weight.l~ weakness Polyphagia
    ##    <dbl>  <dbl>    <dbl>      <dbl>            <dbl>    <dbl>      <dbl>
    ##  1    40      0        0          1                0        1          0
    ##  2    58      0        0          0                0        1          0
    ##  3    41      0        1          0                0        1          1
    ##  4    45      0        0          0                1        1          1
    ##  5    60      0        1          1                1        1          1
    ##  6    55      0        1          1                0        1          1
    ##  7    57      0        1          1                0        1          1
    ##  8    66      0        1          1                1        1          0
    ##  9    67      0        1          1                0        1          1
    ## 10    70      0        0          1                1        1          1
    ## # ... with 510 more rows, and 10 more variables: Genital.thrush <dbl>,
    ## #   visual.blurring <dbl>, Itching <dbl>, Irritability <dbl>,
    ## #   delayed.healing <dbl>, partial.paresis <dbl>, muscle.stiffness <dbl>,
    ## #   Alopecia <dbl>, Obesity <dbl>, class <dbl>
…
